{
  "1-overview": {
    "title": "Overview"
  },
  "2-configuring": {
    "title": "Configuring Validated Forms"
  },
  "3-inputs": {
    "title": "Input Components"
  },
  "4-components": {
    "title": "Non-Input Components"
  },
  "5-state": {
    "title": "Form State"
  },
  "6-methods": {
    "title": "Form Methods"
  }
}
